{"frames": {

"cancel.png":
{
	"frame": {"x":565,"y":1030,"w":406,"h":130},
	"rotated": false,
	"trimmed": false,
	"spriteSourceSize": {"x":0,"y":0,"w":406,"h":130},
	"sourceSize": {"w":406,"h":130}
},
"creature_1.png":
{
	"frame": {"x":1,"y":1344,"w":444,"h":446},
	"rotated": false,
	"trimmed": false,
	"spriteSourceSize": {"x":78,"y":77,"w":444,"h":446},
	"sourceSize": {"w":444,"h":446}
},
"creature_2.png":
{
	"frame": {"x":1,"y":896,"w":562,"h":446},
	"rotated": false,
	"trimmed": false,
	"spriteSourceSize": {"x":23,"y":77,"w":562,"h":446},
	"sourceSize": {"w":562,"h":446}
},
"creature_3.png":
{
	"frame": {"x":1341,"y":1,"w":599,"h":445},
	"rotated": false,
	"trimmed": false,
	"spriteSourceSize": {"x":0,"y":77,"w":599,"h":445},
	"sourceSize": {"w":599,"h":445}
},
"creature_4.png":
{
	"frame": {"x":447,"y":1344,"w":425,"h":446},
	"rotated": false,
	"trimmed": false,
	"spriteSourceSize": {"x":153,"y":77,"w":425,"h":446},
	"sourceSize": {"w":425,"h":446}
},
"creature_6.png":
{
	"frame": {"x":1341,"y":448,"w":578,"h":446},
	"rotated": false,
	"trimmed": false,
	"spriteSourceSize": {"x":7,"y":77,"w":578,"h":446},
	"sourceSize": {"w":578,"h":446}
},
"creature_7.png":
{
	"frame": {"x":733,"y":498,"w":562,"h":446},
	"rotated": false,
	"trimmed": false,
	"spriteSourceSize": {"x":0,"y":77,"w":562,"h":446},
	"sourceSize": {"w":562,"h":446}
},
"creature_8.png":
{
	"frame": {"x":1474,"y":1568,"w":340,"h":446},
	"rotated": false,
	"trimmed": false,
	"spriteSourceSize": {"x":125,"y":77,"w":340,"h":446},
	"sourceSize": {"w":340,"h":446}
},
"creature_9.png":
{
	"frame": {"x":874,"y":1294,"w":354,"h":446},
	"rotated": false,
	"trimmed": false,
	"spriteSourceSize": {"x":121,"y":77,"w":354,"h":446},
	"sourceSize": {"w":354,"h":446}
},
"ok.png":
{
	"frame": {"x":565,"y":1162,"w":406,"h":130},
	"rotated": false,
	"trimmed": false,
	"spriteSourceSize": {"x":0,"y":0,"w":406,"h":130},
	"sourceSize": {"w":406,"h":130}
},
"picture_1.jpg":
{
	"frame": {"x":1,"y":1792,"w":338,"h":205},
	"rotated": false,
	"trimmed": false,
	"spriteSourceSize": {"x":0,"y":0,"w":338,"h":205},
	"sourceSize": {"w":338,"h":205}
},
"picture_2.jpg":
{
	"frame": {"x":341,"y":1792,"w":338,"h":205},
	"rotated": false,
	"trimmed": false,
	"spriteSourceSize": {"x":0,"y":0,"w":338,"h":205},
	"sourceSize": {"w":338,"h":205}
},
"picture_3.jpg":
{
	"frame": {"x":681,"y":1792,"w":338,"h":205},
	"rotated": false,
	"trimmed": false,
	"spriteSourceSize": {"x":0,"y":0,"w":338,"h":205},
	"sourceSize": {"w":338,"h":205}
},
"picture_4.jpg":
{
	"frame": {"x":245,"y":498,"w":242,"h":352},
	"rotated": false,
	"trimmed": false,
	"spriteSourceSize": {"x":0,"y":0,"w":242,"h":352},
	"sourceSize": {"w":242,"h":352}
},
"picture_5.jpg":
{
	"frame": {"x":489,"y":498,"w":242,"h":352},
	"rotated": false,
	"trimmed": false,
	"spriteSourceSize": {"x":0,"y":0,"w":242,"h":352},
	"sourceSize": {"w":242,"h":352}
},
"picture_6.jpg":
{
	"frame": {"x":1230,"y":1291,"w":242,"h":352},
	"rotated": false,
	"trimmed": false,
	"spriteSourceSize": {"x":0,"y":0,"w":242,"h":352},
	"sourceSize": {"w":242,"h":352}
},
"picture_7.jpg":
{
	"frame": {"x":1230,"y":1645,"w":242,"h":352},
	"rotated": false,
	"trimmed": false,
	"spriteSourceSize": {"x":0,"y":0,"w":242,"h":352},
	"sourceSize": {"w":242,"h":352}
},
"picture_10.jpg":
{
	"frame": {"x":1,"y":498,"w":242,"h":352},
	"rotated": false,
	"trimmed": false,
	"spriteSourceSize": {"x":0,"y":0,"w":242,"h":352},
	"sourceSize": {"w":242,"h":352}
},
"score.png":
{
	"frame": {"x":973,"y":1030,"w":241,"h":91},
	"rotated": false,
	"trimmed": false,
	"spriteSourceSize": {"x":0,"y":0,"w":241,"h":91},
	"sourceSize": {"w":241,"h":91}
},
"timer_1.png":
{
	"frame": {"x":1297,"y":896,"w":512,"h":82},
	"rotated": false,
	"trimmed": false,
	"spriteSourceSize": {"x":0,"y":0,"w":512,"h":82},
	"sourceSize": {"w":512,"h":82}
},
"timer_2.png":
{
	"frame": {"x":973,"y":1207,"w":512,"h":82},
	"rotated": false,
	"trimmed": false,
	"spriteSourceSize": {"x":0,"y":0,"w":512,"h":82},
	"sourceSize": {"w":512,"h":82}
},
"timer_3.png":
{
	"frame": {"x":1487,"y":980,"w":512,"h":82},
	"rotated": false,
	"trimmed": false,
	"spriteSourceSize": {"x":0,"y":0,"w":512,"h":82},
	"sourceSize": {"w":512,"h":82}
},
"timer_4.png":
{
	"frame": {"x":1487,"y":1064,"w":512,"h":82},
	"rotated": false,
	"trimmed": false,
	"spriteSourceSize": {"x":0,"y":0,"w":512,"h":82},
	"sourceSize": {"w":512,"h":82}
},
"timer_5.png":
{
	"frame": {"x":1487,"y":1148,"w":512,"h":82},
	"rotated": false,
	"trimmed": false,
	"spriteSourceSize": {"x":0,"y":0,"w":512,"h":82},
	"sourceSize": {"w":512,"h":82}
},
"timer_6.png":
{
	"frame": {"x":1487,"y":1232,"w":512,"h":82},
	"rotated": false,
	"trimmed": false,
	"spriteSourceSize": {"x":0,"y":0,"w":512,"h":82},
	"sourceSize": {"w":512,"h":82}
},
"timer_7.png":
{
	"frame": {"x":1474,"y":1316,"w":512,"h":82},
	"rotated": false,
	"trimmed": false,
	"spriteSourceSize": {"x":0,"y":0,"w":512,"h":82},
	"sourceSize": {"w":512,"h":82}
},
"timer_8.png":
{
	"frame": {"x":1474,"y":1400,"w":512,"h":82},
	"rotated": false,
	"trimmed": false,
	"spriteSourceSize": {"x":0,"y":0,"w":512,"h":82},
	"sourceSize": {"w":512,"h":82}
},
"timer_9.png":
{
	"frame": {"x":1474,"y":1484,"w":512,"h":82},
	"rotated": false,
	"trimmed": false,
	"spriteSourceSize": {"x":0,"y":0,"w":512,"h":82},
	"sourceSize": {"w":512,"h":82}
},
"timer_10.png":
{
	"frame": {"x":565,"y":946,"w":512,"h":82},
	"rotated": false,
	"trimmed": false,
	"spriteSourceSize": {"x":0,"y":0,"w":512,"h":82},
	"sourceSize": {"w":512,"h":82}
},
"timer_11.png":
{
	"frame": {"x":973,"y":1123,"w":512,"h":82},
	"rotated": false,
	"trimmed": false,
	"spriteSourceSize": {"x":0,"y":0,"w":512,"h":82},
	"sourceSize": {"w":512,"h":82}
},
"window_failed.png":
{
	"frame": {"x":1,"y":1,"w":668,"h":495},
	"rotated": false,
	"trimmed": false,
	"spriteSourceSize": {"x":0,"y":0,"w":668,"h":495},
	"sourceSize": {"w":668,"h":495}
},
"window_success.png":
{
	"frame": {"x":671,"y":1,"w":668,"h":495},
	"rotated": false,
	"trimmed": false,
	"spriteSourceSize": {"x":0,"y":0,"w":668,"h":495},
	"sourceSize": {"w":668,"h":495}
}},
"meta": {
	"app": "http://www.codeandweb.com/texturepacker",
	"version": "1.0",
	"image": "atlas_0.png",
	"format": "RGBA8888",
	"size": {"w":2048,"h":2048},
	"scale": "1",
	"smartupdate": "$TexturePacker:SmartUpdate:1334ba18c30f75ad7a02069396aa18b8:4f57be330460f3f388d3560b9e09f0e6:bcf20a86bf74a279bd6d84157555ec42$"
}
}
