{"frames": {

"creature_5.png":
{
	"frame": {"x":1,"y":1,"w":316,"h":446},
	"rotated": false,
	"trimmed": false,
	"spriteSourceSize": {"x":140,"y":77,"w":316,"h":446},
	"sourceSize": {"w":316,"h":446}
},
"frame_1.png":
{
	"frame": {"x":1,"y":449,"w":300,"h":404},
	"rotated": false,
	"trimmed": false,
	"spriteSourceSize": {"x":0,"y":0,"w":300,"h":404},
	"sourceSize": {"w":300,"h":404}
},
"frame_2.png":
{
	"frame": {"x":547,"y":1,"w":433,"h":319},
	"rotated": false,
	"trimmed": false,
	"spriteSourceSize": {"x":0,"y":0,"w":433,"h":319},
	"sourceSize": {"w":433,"h":319}
},
"picture_8.jpg":
{
	"frame": {"x":303,"y":449,"w":242,"h":352},
	"rotated": false,
	"trimmed": false,
	"spriteSourceSize": {"x":0,"y":0,"w":242,"h":352},
	"sourceSize": {"w":242,"h":352}
},
"picture_9.jpg":
{
	"frame": {"x":547,"y":322,"w":242,"h":352},
	"rotated": false,
	"trimmed": false,
	"spriteSourceSize": {"x":0,"y":0,"w":242,"h":352},
	"sourceSize": {"w":242,"h":352}
}},
"meta": {
	"app": "http://www.codeandweb.com/texturepacker",
	"version": "1.0",
	"image": "atlas_1.png",
	"format": "RGBA8888",
	"size": {"w":1024,"h":1024},
	"scale": "1",
	"smartupdate": "$TexturePacker:SmartUpdate:1334ba18c30f75ad7a02069396aa18b8:4f57be330460f3f388d3560b9e09f0e6:bcf20a86bf74a279bd6d84157555ec42$"
}
}
